{"items":[{"id":1,"name":"Namek","isDestroyed":true,"description":"Planeta natal de los Namekianos. Escenario de importantes batallas y la obtenci\u00f3n de las Dragon Balls de Namek.","image":"https:\/\/dragonball-api.com\/planetas\/Namek_U7.webp","deletedAt":null},{"id":2,"name":"Tierra","isDestroyed":false,"description":"La Tierra tambi\u00e9n llamado Mundo del Drag\u00f3n (Dragon World), es el planeta principal donde se desarrolla la serie de Dragon Ball. Se encuentra en el Sistema Solar de la V\u00eda L\u00e1ctea de las Galaxias del Norte del Universo 7, lugar que supervisa el Kaio del Norte, y tiene su equivalente en el Universo 6. El hogar de los terr\u00edcolas y los Guerreros Z. Ha sido atacado en varias ocasiones por enemigos poderosos.","image":"https:\/\/dragonball-api.com\/planetas\/Tierra_Dragon_Ball_Z.webp","deletedAt":null},{"id":3,"name":"Vegeta","isDestroyed":true,"description":"El planeta Vegeta, conocido como planeta Plant antes del fin de la Guerra Saiyan-tsufruiana en el a\u00f1o 730, es un planeta rocoso ficticio de la serie de manga y anime Dragon Ball y localizado en la V\u00eda L\u00e1ctea de las Galaxias del Norte del Universo 7 hasta su destrucci\u00f3n a manos de Freezer en los a\u00f1os 737-739. Planeta natal de los Saiyans, destruido por Freezer. Anteriormente conocido como Planeta Plant.","image":"https:\/\/dragonball-api.com\/planetas\/Planeta_Vegeta_en_Dragon_Ball_Super_Broly.webp","deletedAt":null},{"id":4,"name":"Freezer No. 79","isDestroyed":true,"description":"Planeta artificial utilizado por Freezer como base de operaciones y centro de clonaci\u00f3n.","image":"https:\/\/dragonball-api.com\/planetas\/PlanetaFreezer.webp","deletedAt":null},{"id":5,"name":"Kanassa","isDestroyed":true,"description":"Planeta habitado por los Kanassans y conocido por la lucha entre Bardock y los habitantes del planeta.","image":"https:\/\/dragonball-api.com\/planetas\/800px-PlanetKannasa.webp","deletedAt":null},{"id":6,"name":"Monmar","isDestroyed":false,"description":"Planeta donde Gohan y Krillin encontraron las Dragon Balls para revivir a sus amigos durante la Saga de Namek.","image":"https:\/\/dragonball-api.com\/planetas\/monmar.webp","deletedAt":null},{"id":7,"name":"Yardrat","isDestroyed":false,"description":"Planeta de la t\u00e9cnica Instant Transmission, aprendida por Goku durante su estancia.","image":"https:\/\/dragonball-api.com\/planetas\/PlanetYardrat.webp","deletedAt":null},{"id":11,"name":"Kai\u014d del Norte","isDestroyed":false,"description":"El Planeta Kaio se encuentra al final del largo Camino de la Serpiente. Es donde viven el Kaio del Norte, su mascota Bubbles, al que utiliza como parte de su entrenamiento, y Gregory.","image":"https:\/\/dragonball-api.com\/planetas\/Planeta_del_Kaio_del_Norte.webp","deletedAt":null},{"id":13,"name":"Makyo","isDestroyed":false,"description":"Makyo es un planeta y la fuente de alimentaci\u00f3n de todos los mal\u00e9volos, especialmente Garlic Jr., que solo aparece durante el Arco de Garlic Jr. de Dragon Ball Z.","image":"https:\/\/dragonball-api.com\/planetas\/Makyo_Star.webp","deletedAt":null},{"id":14,"name":"Babari","isDestroyed":false,"description":"Planeta habitado por los Babari, es un planeta tel\u00farico del Universo 10 donde residen los babarianos, hizo su primera aparici\u00f3n en el episodio 54 de Dragon Ball Super. Es donde Tarble, el hermano de Vegeta, se refugi\u00f3.","image":"https:\/\/dragonball-api.com\/planetas\/Planeta_Babari.webp","deletedAt":null}],"meta":{"totalItems":20,"itemCount":10,"itemsPerPage":10,"totalPages":2,"currentPage":1},"links":{"first":"https:\/\/dragonball-api.com\/api\/planets?limit=10","previous":"","next":"https:\/\/dragonball-api.com\/api\/planets?page=2&limit=10","last":"https:\/\/dragonball-api.com\/api\/planets?page=2&limit=10"}}